{
	"name": "Waldelfen",
	"type": "Army",
	"system": "FantasyDE",
	"units": [
		{
			"Kommandant": [
				{
					"name": "Orion",
					"type": "Solo",
					"cost": 600,
					"upgrades": []
				}, 
				{
					"name": "Durthu",
					"type": "Solo",
					"cost": 385,
					"upgrades": []
				},
				{
					"name": "Araloth",
					"type": "Solo",
					"cost": 260,
					"upgrades": []
				},
				{
					"name": "Glade Lord",
					"type": "Solo",
					"cost": 145,
					"upgrades": []
				},
				{
					"name": "Spellweaver",
					"type": "Solo",
					"cost": 185,
					"upgrades": []
				},
				{
					"name": "Treeman Ancient",
					"type": "Solo",
					"cost": 290,
					"upgrades": []
				}
			]
		},
		{
			"Helden": [
				{
					"name": "Drycha",
					"type": "Solo",
					"cost": 255,
					"upgrades": []
				},
				{
					"name": "Naestra & Arahan",
					"type": "Solo",
					"cost": 275,
					"upgrades": []
				},
				{
					"name": "Glade Captain",
					"type": "Solo",
					"cost": 75,
					"upgrades": []
				},
				{
					"name": "Spellsinger",
					"type": "Solo",
					"cost": 80,
					"upgrades": []
				},
				{
					"name": "Shadowsancer",
					"type": "Solo",
					"cost": 100,
					"upgrades": []
				},
				{
					"name": "Waystalker",
					"type": "Solo",
					"cost": 90,
					"upgrades": []
				},
				{
					"name": "Branchwraith",
					"type": "Solo",
					"cost": 75,
					"upgrades": []
				}
			]
		},
		{
			"Kerneinheiten": [
				{
					"name": "Glade Guard",
					"type": "Troop",
					"cost": 12,
					"minCount": 10,
					"maxCount": 0,
					"upgrades": []
				},
				{
					"name": "Dryads",
					"type": "Troop",
					"cost": 12,
					"minCount": 10,
					"maxCount": 0,
					"upgrades": []
				},
				{
					"name": "Glade Riders",
					"type": "Troop",
					"cost": 12,
					"minCount": 5,
					"maxCount": 0,
					"upgrades": []
				},
				{
					"name": "Eternal Guard",
					"type": "Troop",
					"cost": 11,
					"minCount": 10,
					"maxCount": 0,
					"upgrades": []
				}
			]
		},
		{
			"Eliteeinheiten": [
				{
					"name": "Wildwood Ranger",
					"type": "Troop",
					"cost": 11,
					"minCount": 10,
					"maxCount": 0,
					"upgrades":[]
				},
				{
					"name": "Wardancer",
					"type": "Troop",
					"cost": 15,
					"minCount": 5,
					"maxCount": 0,
					"upgrades":[]
				},
				{
					"name": "Tree Kin",
					"type": "Troop",
					"cost": 45,
					"minCount": 3,
					"maxCount": 0,
					"upgrades":[]
				},
				{
					"name": "Deepwood Scouts",
					"type": "Troop",
					"cost": 13,
					"minCount": 5,
					"maxCount": 0,
					"upgrades":[]
				},
				{
					"name": "Warhawk Riders",
					"type": "Troop",
					"cost": 45,
					"minCount": 3,
					"maxCount": 0,
					"upgrades":[]
				},
				{
					"name": "Sisters of the Thorn",
					"type": "Troop",
					"cost": 26,
					"minCount": 5,
					"maxCount": 0,
					"upgrades":[]
				},
				{
				"name": "Wild Riders",
					"type": "Troop",
					"cost": 26,
					"minCount": 5,
					"maxCount": 0,
					"upgrades":[]
				}
			]
		},
		{
			"Seltene Einheiten": [
				{
					"name": "Waywatchers",
					"type": "Troop",
					"cost": 20,
					"minCount": 5,
					"maxCount": 0,
					"upgrades":[]
				},
				{
					"name": "Great Eagles",
					"type": "Troop",
					"cost": 50,
					"minCount": 1,
					"maxCount": 0,
					"upgrades":[]
				},
				{
					"name": "Treeman",
					"type": "Solo",
					"cost": 225,
					"upgrades": []
				}
			]
		}
	],
	"upgradeItems": []
}